[overrides]
insecure-hash = SHA1
insecure-hash = MD5
tls-disabled-mac = MD5
insecure-sig = RSA-MD5
insecure-sig = RSA-SHA1
insecure-sig = DSA-SHA1
insecure-sig = ECDSA-SHA1
insecure-sig = DSA-SHA224
insecure-sig = DSA-SHA256
insecure-sig = DSA-SHA384
insecure-sig = DSA-SHA512
insecure-sig-for-cert = rsa-sha1
insecure-sig-for-cert = dsa-sha1
insecure-sig-for-cert = ecdsa-sha1
tls-disabled-cipher = CAMELLIA-256-GCM
tls-disabled-cipher = CAMELLIA-128-GCM
tls-disabled-cipher = CAMELLIA-256-CBC
tls-disabled-cipher = CAMELLIA-128-CBC
tls-disabled-cipher = 3DES-CBC
tls-disabled-cipher = ARCFOUR-128
tls-disabled-cipher = GOST28147-TC26Z-CFB
tls-disabled-cipher = GOST28147-CPB-CFB
tls-disabled-cipher = GOST28147-CPC-CFB
tls-disabled-cipher = GOST28147-CPD-CFB
tls-disabled-kx = DHE-DSS
disabled-version = SSL3.0
disabled-version = TLS1.0
disabled-version = TLS1.1
disabled-version = DTLS1.0
min-verification-profile = medium

[priorities]
SYSTEM=NORMAL
